{
    "type": "service_account",
    "project_id": "tokyo-guild-274713",
    "private_key_id": "5f688fcf404c7563e340ed984738519cf88c9b07",
   "private_key": "-----BEGIN PRIVATE KEY-----\nMIIEvgIBADANBgkqhkiG9w0BAQEFAASCBKgwggSkAgEAAoIBAQCyD6MtNlnR8Tk7\nKwSJa4Gx6u1O5CjfzbiIfjDsjNN7ebBKOa9q6P8VqyWDpR4mqSqo8hCcMP0Nrd6f\nSQwS3p7c1SUZxotnH0Q+rRx4TSzWUsQGYqu81REOyFpodxdHvCwlulOuN+75w/Kv\nRLfVwK5KGusoHzt+qc8GC7RBqqeM0TMx42/EUhfqXks6o42AEtVomvbX8Fp4K9ef\npWlWHLsb5C6sTI4Mihav29jVDEyAJXC/GLKPOkose0dIBTgwcBovGN2MY7erMNhb\n2Pqdms1V0PxSQsFoK2DAl0Y+KijeVe6dtjfEE7b+NzlfX61PaqIV3OTZ980AKMDV\nXcTMiX+xAgMBAAECggEAL9fFx1soLSG8d+pqEKZjNbPiyWTCmsfCwmHtsVFxbWbX\n+EmhmX87Ms5GiSWvgUHI5ZYM4nrDM465F2FgLh3E358hldhkEnQzOQf4c1aBKqEY\nbILMlDNHnwo0SIdfKPYlgoma/F+pBVEh/vfe0T8xVVYAQ0qJCNKFfqFccJxy4oHL\nn/PtgXqjAmiKhihXL6hZ+uTVl+i1NoBcMhwTlkSAOL0Bdt19bAT4zKK7/MWR4FUU\nHF9ENwEqzojjCz6fTisHKBF621hd60umV7hbZaqQa5C0Ijp+yThCRZFZssPQ2Xqi\n+uwq+BDFVkEcJRZ+A0MKyvaaZMFu+e2qGxzaN/TZhQKBgQDzbM7rdvYcmjoWVHgq\nhi4/ExcrFJwhU7gOwaDyTbTwaL0USoe57KydqOgHmdnOJ0sK0nSVd8xLYUd/mmXv\nss1ygUe5u72dBYphpCAr3Ab3OCwMNbwlAMTXJ5DX/jS8u9dgB3rHq4Jj7XE2TOo+\nz+QGb7kWb6PihhwyrnOIAi1UjwKBgQC7Qms+dKOTB/syJClcYDuWiLS1lOtUYjOT\nGUyuArhEZOQqxKSBpJO1oJjUTlI4epFD9P60v4qyMn/Vof8jjX3TUhoUB39e91TD\n7HhfmR5lohzo+WhI0H7HnpWKAFF7lZluXMpRsY4XV8y8v7L0f6fmNuOhW1dz2xS9\nXDZEOOCHvwKBgQCpvoI75+SO5W0EDTsOTCsLiMBrJiAJjVuXzqXw0QcPbboL4Dzt\nBYEJH7NNOZeMDhJiJYdugu9O0TMOZBgZIdHpuwTNG4GJcUeh9tUIQJIK6nystvvP\nwc2BSvHR7E3SHhp9uDmB6rMuA3EisFfYHReg9V9XqdnaKDKZlNSzTvFVOQKBgD1J\nUqIhOHvhi9PwQ90o3be5zDL1p0N51FlbWV5GI5q2zno024ZWn8U852fsrjov2yU7\npLTxT2pc3rvDhiZTo4+q+j/96DDjj8mDti3LhkhLE10oa3oRSrz4aQa+beydnJaj\nJdAw5Uk8ghRwRRiCQyg0ZLGlnGydkh8bc+NGHi4vAoGBANxy854t80oan797La1s\nUYh0KOO1ZLZLD7HfgFT+B85s9afrvpAG9MIAqnEpCAvXklYfLXpdxeGdinOzJwZ8\nDG+TS64RF1CXDHR8I5udnI0Xyd2OzytrUNJM+cShmAzHbCulbVUYEWxntTpfjdQC\nvuj9I0cC5WcB7IwE4C1W6xde\n-----END PRIVATE KEY-----\n",
    "client_email": "nova-growth@tokyo-guild-274713.iam.gserviceaccount.com",
    "client_id": "111265249681447759894",
    "auth_uri": "https://accounts.google.com/o/oauth2/auth",
    "token_uri": "https://oauth2.googleapis.com/token",
    "auth_provider_x509_cert_url": "https://www.googleapis.com/oauth2/v1/certs",
    "client_x509_cert_url": "https://www.googleapis.com/robot/v1/metadata/x509/nova-growth%40tokyo-guild-274713.iam.gserviceaccount.com"
  }